Invention;Date;image
L'appatition de la céramique;-9000;ceramique
L'invention du papier;-200;papier
La fondation du théorème de Pythagore;-548;pythagore
L'invention du morse;1838;morse
L'invention du télégraphe;1837;telegraphe
La découverte de la pénicilline;1918;penicilline
L'invention de la seringue hypodermique;1841;seringue_hypodermique
La révolution francaise;1789;revolution
L'invention du diapason;1711;diapason
L'invention de la lunette astronomique;1609;lunette_astro
L'invention du jeu de réles;1974;jeu_roles
L'invention du disque compact;1979;disque_compact
L'invention des lunettes;1299;lunettes
L'invention de la boussole;1090;boussole
L'invention du sablier;900;sablier
L'invention de la locomotive;1804;locomotive
L'invention de la vis;-250;vis
L'invention de l'imprimerie;1437;imprimerie
L'invention du rail métallique;1763;rail_metallique
L'invention de la machine à vapeur;1712;machine_vapeur
L'invention du violon;1523;violon
L'invention du paratonnerre;1752;paratonnerre
L'invention du téléphone;1876;telephone
L'invention du stylo à bille;1938;stylo_bille
L'invention de la Ford T;1908;ford_t
L'invention de la dynamite;1867;dynamite
L'invention de l'encyclopédie;1751;encyclopedie
L'invention de la poudre noire;630;poudre_noire
L'invention du coffre-fort;1844;coffre_fort
L'invention du sextant;1730;sextant
L'invention du jeans;1873;jeans
L'invention du chèque;1742;cheque
La tour Eiffel;1889;eiffel
L'invention du tire_bouchons;1795;tire_bouchons
L'invention du scaphandre;1679;scaphandre
L'invention de l'élastique;1845;elastique
L'invention de la mini-jupe;1962;mini_jupe
L'invention de la motocyclette;1868;motocyclette
L'invention de l'ampoule électrique;1879;ampoule_electrique
L'invention de l'arbalète;-400;arbalete
L'apparition de l'écriture;-3400;ecriture
L'invention de la machine à écrire;1714;machine_ecrire
L'invention du phongraphe;1877;phonographe
L'invention du sous-marin;1775;sous_marin
L'invention du baromètre;1643;barometre
L'invention du thermomètre;1612;thermometre
La pyramide du Louvre;1989;louvre
L'invention du Zeppelin;1900;zeppelin
L'invention de la cocotte-minute;1679;cocotte_minute
L'invention du vélocipède;1817;velocipede
L'invention de l'ouvre-boîtes ;1858;ouvre_boites
Le capital;1867;capital
L'invention du fil de fer barbelé;1867;barbele
L'invention du transistor;1947;transistor
L'invention de la gomme ;1770;gomme
L'invention du carton de lait;1915;carton_lait
La fondation de la théorie de la relativité générale;1915;relativite_generale
L'invention du moteur à explosion;1860;moteur_explosion
L'invention du microscope;1590;microscope
L'invention de la winchester;1866;winchester